…
``` r
genome %>%
  filter(PI_HAT > 0.8)
```

    ## # A tibble: 567 x 15
    ##    FID1   IID1 FID2  IID2 RT    EZ       Z0    Z1    Z2 PI_HAT   PHE   DST
    ##    <chr> <int> <ch> <int> <chr> <chr> <dbl> <dbl> <dbl>  <dbl> <int> <dbl>
    ##  1 1400…     1 140…     1 UN    <NA>      0     0     1      1    -1     1
    ##  2 1400…     1 140…     1 UN    <NA>      0     0     1      1    -1     1
    ##  3 1500…     1 150…     1 UN    <NA>      0     0     1      1    -1     1
    ##  4 1500…     1 150…     1 UN    <NA>      0     0     1      1    -1     1
    ##  5 1500…     1 150…     1 UN    <NA>      0     0     1      1    -1     1
    ##  6 1500…     1 150…     1 UN    <NA>      0     0     1      1    -1     1
    ##  7 Cont…     1 Con…     1 UN    <NA>      0     0     1      1    -1     1
    ##  8 Cont…     1 Con…     1 UN    <NA>      0     0     1      1    -1     1
    ##  9 Cont…     1 Con…     1 UN    <NA>      0     0     1      1    -1     1
    ## 10 Cont…     1 Con…     1 UN    <NA>      0     0     1      1    -1     1
    ## # ... with 557 more rows, and 3 more variables: PPC <dbl>, RATIO <dbl>,
    ## #   color <chr>
…
