…
``` r
genome %>%
  filter(PI_HAT > 0.8)
```

    ## # A tibble: 155 x 15
    ##    FID1   IID1 FID2  IID2 RT    EZ       Z0    Z1    Z2 PI_HAT   PHE   DST
    ##    <chr> <int> <ch> <int> <chr> <chr> <dbl> <dbl> <dbl>  <dbl> <int> <dbl>
    ##  1 0000…     1 000…     1 UN    <NA>      0     0     1      1    -1     1
    ##  2 0000…     1 000…     1 UN    <NA>      0     0     1      1    -1     1
    ##  3 0000…     1 000…     1 UN    <NA>      0     0     1      1    -1     1
    ##  4 06003     1 070…     1 UN    <NA>      0     0     1      1    -1     1
    ##  5 06006     1 110…     1 UN    <NA>      0     0     1      1    -1     1
    ##  6 06010     1 110…     1 UN    <NA>      0     0     1      1    -1     1
    ##  7 06013     1 110…     1 UN    <NA>      0     0     1      1    -1     1
    ##  8 06015     1 110…     1 UN    <NA>      0     0     1      1    -1     1
    ##  9 06017     1 110…     1 UN    <NA>      0     0     1      1    -1     1
    ## 10 06032     1 110…     1 UN    <NA>      0     0     1      1    -1     1
    ## # ... with 145 more rows, and 3 more variables: PPC <dbl>, RATIO <dbl>,
    ## #   color <chr>
…
